R' F R F' R U R'
F U F' U' F' R U R'
F' R' U' F U F' R F
F' U F R' F R F'
F' U F U R U' R'
F' U' F U R U R'
R U' R' F R' F' R
F R' F' R F' U' F
R F U R' U' R F' R'
R F' U' F U F R' F'
R U R' F U F' U' F'
R U R' U' F' U' F
R U F U F' U' R' F'
R U' R' U' F' U F
F R U F R U' R' F' R'
F' R F U F' R' U' F
F' R' F R U R' F' R F
F' R' U' R F R' U R
F' U F U U R U U R'
F' U U F U U R U R'
R' F' R U R U' R' F
F U R F U' F' U' R'
F U F' R F U' F' R'
R R U R' U' R' F R F' R'
R F R' F' R U R U' R R
R F R' F' U' F R F' R'
R F F R' F' R U F' R' F'
R F U F' R R U' F' U R
R F U F' R' F R U' R' F'
R F U' R U R' F' U R' F'
R U R' F U R' F' R U' F'
R U R' F' U F U' F' U' F
R U F U R U' R' F' R'
R U' R' U U F' U U F
R U' R' U' F U F F U' F'
R' F' U' F R F' R' U R F
F F U' F U R U R' U' F
F U' F' U' R F U U F' R'
F' R F' U' F U F U R'
F' R' F' U' F U R U F
F' R' U F U' F' U' R F
F' R' U U R F U' R' U' R
F' U R U' R' F R' F' R F
F' U F U F' U' F R U' R'
F' U F' R' F' R U F F
R F R' U R U' F' R'
R F U' R' U' R U F' R'
F U F U' F' R U' R'
F' R' F R U' R' F' R F
F' U R F U' F' R' F
R U F U F' R' U' F'
R' U' R F' R' U R F
F R F' U' F' U F R'
F R U F U' F' U' R'
R F U F' R R F U' F' U R
R F U F' R' U' F' R U R'
R F U U F' R' U F U F'
R U R' F U U F U' F' U' F'
R U R' F' U U F U' F' U' F
R U' R' F U R F U' F' R'
R U' R' U F' U F U' R U R'
R U' R' U' R U R' F' U F
R U' R' U' R U U R' F' U F
R' U R U F' R' U U R F
R' U' F U F R U' F' R U R'
F R F U' R' F R F F R'
F R U R' F U F U' F' U' F'
F R U' F R U' R' U F' R'
F F U' R' F R F U' F
F F U' F U F R' F' R F
F U R U' R R F' R F' U' F
F U F U' F' U' R' F R F'
F U U F' U U F' R U R'
F' R F U F' R' F R' F R F'
F' R F U F' R' F U R U' R'
F' R F U' F' R' F R U U R'
F' R U R R U' R' F R U R
F' R U R' U' R' U' F U R
F' R U R' U' F' U' F U F
F' R' F R F' U' F' U F F
F' R' U' R F R' F' U F R
F' U F R' F R U R U' R' F'
F' U F U R F U F' U' R' F'
F' U F U F' U F R U' R'
F' U' R F R' U R F' R' F
F' U' F R U R' U R U R'
F' U' F R U' R' U R U R'
F' U' F U F U R F U' F' R'
R F' R' F U F' R F U' R'
R' U U R U F' R' U R F
R' U' F U R U' F' R U R'
F R U R' F' U' F' R U R'
F U R U' F' U' F' U F R'
F U R' F R U' F' R U' R'
F U F F U' F' U R U R'
F U F U' F' U R U U R'
F' U R U' R' U' F' U F F
F' U' R' U' F' U F R F
R F R U R' U' F' U' R'
R U' R' F U F U' F'
R U' F' U' F' U F R' F
R F R U R' F' U' R' F'
R F R' F' U F R F' R'
R F U' R' U U R U F' R'
F' R' F R U U R' F' R F
F' R' F U' F' U R F
F' R' U F U F' U' R F
